<svg width="24" height="24" viewBox="0 0 24 24" fill="none" xmlns="http://www.w3.org/2000/svg">
<path d="M13.8 9.00002C13.8 9.47741 13.6103 9.93525 13.2728 10.2728C12.9352 10.6104 12.4774 10.8 12 10.8C11.5226 10.8 11.0648 10.6104 10.7272 10.2728C10.3896 9.93525 10.2 9.47741 10.2 9.00002C10.2 8.52263 10.3896 8.0648 10.7272 7.72723C11.0648 7.38967 11.5226 7.20002 12 7.20002C12.4774 7.20002 12.9352 7.38967 13.2728 7.72723C13.6103 8.0648 13.8 8.52263 13.8 9.00002ZM8.39999 12.9V13.2C8.39999 13.8365 8.65284 14.447 9.10293 14.8971C9.55302 15.3472 10.1635 15.6 10.8 15.6H13.2C13.8365 15.6 14.447 15.3472 14.897 14.8971C15.3471 14.447 15.6 13.8365 15.6 13.2V12.9C15.6 12.6613 15.5052 12.4324 15.3364 12.2636C15.1676 12.0948 14.9387 12 14.7 12H9.29999C9.06129 12 8.83237 12.0948 8.66359 12.2636C8.49481 12.4324 8.39999 12.6613 8.39999 12.9ZM4.79999 4.80002V19.2C4.79999 19.8365 5.05284 20.447 5.50293 20.8971C5.95302 21.3472 6.56347 21.6 7.19999 21.6H18.6C18.7591 21.6 18.9117 21.5368 19.0243 21.4243C19.1368 21.3118 19.2 21.1592 19.2 21C19.2 20.8409 19.1368 20.6883 19.0243 20.5758C18.9117 20.4632 18.7591 20.4 18.6 20.4H7.19999C6.88173 20.4 6.5765 20.2736 6.35146 20.0486C6.12642 19.8235 5.99999 19.5183 5.99999 19.2H18C18.3182 19.2 18.6235 19.0736 18.8485 18.8486C19.0736 18.6235 19.2 18.3183 19.2 18V4.80002C19.2 4.1635 18.9471 3.55306 18.497 3.10297C18.047 2.65288 17.4365 2.40002 16.8 2.40002H7.19999C6.56347 2.40002 5.95302 2.65288 5.50293 3.10297C5.05284 3.55306 4.79999 4.1635 4.79999 4.80002ZM16.8 3.60002C17.1182 3.60002 17.4235 3.72645 17.6485 3.9515C17.8736 4.17654 18 4.48176 18 4.80002V18H5.99999V4.80002C5.99999 4.48176 6.12642 4.17654 6.35146 3.9515C6.5765 3.72645 6.88173 3.60002 7.19999 3.60002H16.8Z" fill="white"/>
</svg>
